…
``` r
brfss <- p8105.datasets::brfss_smart2010 %>% #Pulls dataframe out of package.
  janitor::clean_names() %>%  #Converts to snake case.
  filter(topic == "Overall Health") %>%  #Filters by overall health topic.
    spread(key = response,value=data_value) %>% 
  #converts the format to wide (resulting in the excellent and very good columns.
   janitor::clean_names() 
brfss
```

    ## # A tibble: 10,625 x 26
    ##     year locationabbr locationdesc class topic question sample_size
    ##    <int> <chr>        <chr>        <chr> <chr> <chr>          <int>
    ##  1  2010 AL           AL - Jeffer~ Heal~ Over~ How is ~          94
    ##  2  2010 AL           AL - Jeffer~ Heal~ Over~ How is ~         148
    ##  3  2010 AL           AL - Jeffer~ Heal~ Over~ How is ~         208
    ##  4  2010 AL           AL - Jeffer~ Heal~ Over~ How is ~         107
    ##  5  2010 AL           AL - Jeffer~ Heal~ Over~ How is ~          45
    ##  6  2010 AL           AL - Mobile~ Heal~ Over~ How is ~          91
    ##  7  2010 AL           AL - Mobile~ Heal~ Over~ How is ~         177
    ##  8  2010 AL           AL - Mobile~ Heal~ Over~ How is ~         224
    ##  9  2010 AL           AL - Mobile~ Heal~ Over~ How is ~         120
    ## 10  2010 AL           AL - Mobile~ Heal~ Over~ How is ~          66
    ## # ... with 10,615 more rows, and 19 more variables:
    ## #   confidence_limit_low <dbl>, confidence_limit_high <dbl>,
    ## #   display_order <int>, data_value_unit <chr>, data_value_type <chr>,
    ## #   data_value_footnote_symbol <chr>, data_value_footnote <chr>,
    ## #   data_source <chr>, class_id <chr>, topic_id <chr>, location_id <chr>,
    ## #   question_id <chr>, respid <chr>, geo_location <chr>, excellent <dbl>,
    ## #   fair <dbl>, good <dbl>, poor <dbl>, very_good <dbl>
